Capstone Quiz I
…
Timber

Veenker

NridgHt

ames_train %>%
  group_by(Neighborhood) %>%
  summarise(total=sd(price)) %>%
  arrange(-total)

## Warning: package 'bindrcpp' was built under R version 3.4.1

## # A tibble: 27 x 2
##    Neighborhood     total
##          <fctr>     <dbl>
##  1      StoneBr 123459.10
##  2      NridgHt 105088.90
##  3       Timber  84029.57
##  4      Veenker  72545.41
##  5      Crawfor  71267.56
##  6      GrnHill  70710.68
##  7      Somerst  65199.49
##  8      Edwards  54851.63
##  9      CollgCr  52786.08
## 10      SawyerW  48354.36
## # ... with 17 more rows
…
0

1

2

3

ames_train %>%
  group_by(Neighborhood) %>%
  summarise(flag=mean(Bldg.Type == '1Fam')) %>%
  arrange(-flag)

## # A tibble: 27 x 2
##    Neighborhood      flag
##          <fctr>     <dbl>
##  1      ClearCr 1.0000000
##  2      NoRidge 1.0000000
##  3       Timber 1.0000000
##  4      Gilbert 0.9795918
##  5      BrkSide 0.9756098
##  6       NWAmes 0.9756098
##  7      CollgCr 0.9647059
##  8       IDOTRR 0.9428571
##  9        NAmes 0.9225806
## 10       Sawyer 0.9180328
## # ... with 17 more rows
…
